{
  "dubai": {
    "dubai/01.jpg": {
      "imagePath": "https://aab-photo-albums.s3-us-west-1.amazonaws.com/dubai/01.jpg"
    },
    "dubai/02.jpg": {
      "imagePath": "https://aab-photo-albums.s3-us-west-1.amazonaws.com/dubai/02.jpg"
    },
    "dubai/03.jpg": {
      "imagePath": "https://aab-photo-albums.s3-us-west-1.amazonaws.com/dubai/03.jpg"
    },
    "dubai/04.jpg": {
      "imagePath": "https://aab-photo-albums.s3-us-west-1.amazonaws.com/dubai/04.jpg"
    },
    "dubai/05.jpg": {
      "imagePath": "https://aab-photo-albums.s3-us-west-1.amazonaws.com/dubai/05.jpg"
    },
    "dubai/06.jpg": {
      "imagePath": "https://aab-photo-albums.s3-us-west-1.amazonaws.com/dubai/06.jpg"
    },
    "dubai/07.jpg": {
      "imagePath": "https://aab-photo-albums.s3-us-west-1.amazonaws.com/dubai/07.jpg"
    },
    "dubai/08.jpg": {
      "imagePath": "https://aab-photo-albums.s3-us-west-1.amazonaws.com/dubai/08.jpg"
    },
    "dubai/09.jpg": {
      "imagePath": "https://aab-photo-albums.s3-us-west-1.amazonaws.com/dubai/09.jpg"
    },
    "dubai/10.jpg": {
      "imagePath": "https://aab-photo-albums.s3-us-west-1.amazonaws.com/dubai/10.jpg"
    },
    "dubai/11.jpg": {
      "imagePath": "https://aab-photo-albums.s3-us-west-1.amazonaws.com/dubai/11.jpg"
    },
    "dubai/12.jpg": {
      "imagePath": "https://aab-photo-albums.s3-us-west-1.amazonaws.com/dubai/12.jpg"
    },
    "dubai/13.jpg": {
      "imagePath": "https://aab-photo-albums.s3-us-west-1.amazonaws.com/dubai/13.jpg"
    },
    "dubai/14.jpg": {
      "imagePath": "https://aab-photo-albums.s3-us-west-1.amazonaws.com/dubai/14.jpg"
    },
    "dubai/15.jpg": {
      "imagePath": "https://aab-photo-albums.s3-us-west-1.amazonaws.com/dubai/15.jpg"
    },
    "dubai/16.jpg": {
      "imagePath": "https://aab-photo-albums.s3-us-west-1.amazonaws.com/dubai/16.jpg"
    },
    "dubai/17.jpg": {
      "imagePath": "https://aab-photo-albums.s3-us-west-1.amazonaws.com/dubai/17.jpg"
    },
    "dubai/18.jpg": {
      "imagePath": "https://aab-photo-albums.s3-us-west-1.amazonaws.com/dubai/18.jpg"
    },
    "dubai/19.jpg": {
      "imagePath": "https://aab-photo-albums.s3-us-west-1.amazonaws.com/dubai/19.jpg"
    },
    "dubai/20.jpg": {
      "imagePath": "https://aab-photo-albums.s3-us-west-1.amazonaws.com/dubai/20.jpg"
    },
    "dubai/21.jpg": {
      "imagePath": "https://aab-photo-albums.s3-us-west-1.amazonaws.com/dubai/21.jpg"
    },
    "dubai/22.jpg": {
      "imagePath": "https://aab-photo-albums.s3-us-west-1.amazonaws.com/dubai/22.jpg"
    },
    "dubai/23.jpg": {
      "imagePath": "https://aab-photo-albums.s3-us-west-1.amazonaws.com/dubai/23.jpg"
    },
    "dubai/24.jpg": {
      "imagePath": "https://aab-photo-albums.s3-us-west-1.amazonaws.com/dubai/24.jpg"
    },
    "dubai/25.jpg": {
      "imagePath": "https://aab-photo-albums.s3-us-west-1.amazonaws.com/dubai/25.jpg"
    },
    "dubai/26.jpg": {
      "imagePath": "https://aab-photo-albums.s3-us-west-1.amazonaws.com/dubai/26.jpg"
    },
    "dubai/27.jpg": {
      "imagePath": "https://aab-photo-albums.s3-us-west-1.amazonaws.com/dubai/27.jpg"
    },
    "dubai/28.jpg": {
      "imagePath": "https://aab-photo-albums.s3-us-west-1.amazonaws.com/dubai/28.jpg"
    },
    "dubai/29.jpg": {
      "imagePath": "https://aab-photo-albums.s3-us-west-1.amazonaws.com/dubai/29.jpg"
    },
    "dubai/30.jpg": {
      "imagePath": "https://aab-photo-albums.s3-us-west-1.amazonaws.com/dubai/30.jpg"
    },
    "dubai/31.jpg": {
      "imagePath": "https://aab-photo-albums.s3-us-west-1.amazonaws.com/dubai/31.jpg"
    },
    "dubai/32.jpg": {
      "imagePath": "https://aab-photo-albums.s3-us-west-1.amazonaws.com/dubai/32.jpg"
    },
    "dubai/33.jpg": {
      "imagePath": "https://aab-photo-albums.s3-us-west-1.amazonaws.com/dubai/33.jpg"
    },
    "dubai/34.jpg": {
      "imagePath": "https://aab-photo-albums.s3-us-west-1.amazonaws.com/dubai/34.jpg"
    },
    "dubai/35.jpg": {
      "imagePath": "https://aab-photo-albums.s3-us-west-1.amazonaws.com/dubai/35.jpg"
    },
    "dubai/36.jpg": {
      "imagePath": "https://aab-photo-albums.s3-us-west-1.amazonaws.com/dubai/36.jpg"
    },
    "dubai/37.jpg": {
      "imagePath": "https://aab-photo-albums.s3-us-west-1.amazonaws.com/dubai/37.jpg"
    },
    "dubai/38.jpg": {
      "imagePath": "https://aab-photo-albums.s3-us-west-1.amazonaws.com/dubai/38.jpg"
    },
    "dubai/39.jpg": {
      "imagePath": "https://aab-photo-albums.s3-us-west-1.amazonaws.com/dubai/39.jpg"
    },
    "dubai/40.jpg": {
      "imagePath": "https://aab-photo-albums.s3-us-west-1.amazonaws.com/dubai/40.jpg"
    },
    "dubai/41.jpg": {
      "imagePath": "https://aab-photo-albums.s3-us-west-1.amazonaws.com/dubai/41.jpg"
    },
    "dubai/42.jpg": {
      "imagePath": "https://aab-photo-albums.s3-us-west-1.amazonaws.com/dubai/42.jpg"
    },
    "dubai/43.jpg": {
      "imagePath": "https://aab-photo-albums.s3-us-west-1.amazonaws.com/dubai/43.jpg"
    },
    "dubai/44.jpg": {
      "imagePath": "https://aab-photo-albums.s3-us-west-1.amazonaws.com/dubai/44.jpg"
    },
    "dubai/45.jpg": {
      "imagePath": "https://aab-photo-albums.s3-us-west-1.amazonaws.com/dubai/45.jpg"
    },
    "dubai/46.jpg": {
      "imagePath": "https://aab-photo-albums.s3-us-west-1.amazonaws.com/dubai/46.jpg"
    },
    "dubai/47.jpg": {
      "imagePath": "https://aab-photo-albums.s3-us-west-1.amazonaws.com/dubai/47.jpg"
    },
    "dubai/48.jpg": {
      "imagePath": "https://aab-photo-albums.s3-us-west-1.amazonaws.com/dubai/48.jpg"
    },
    "dubai/49.jpg": {
      "imagePath": "https://aab-photo-albums.s3-us-west-1.amazonaws.com/dubai/49.jpg"
    },
    "dubai/50.jpg": {
      "imagePath": "https://aab-photo-albums.s3-us-west-1.amazonaws.com/dubai/50.jpg"
    },
    "dubai/51.jpg": {
      "imagePath": "https://aab-photo-albums.s3-us-west-1.amazonaws.com/dubai/51.jpg"
    },
    "dubai/52.jpg": {
      "imagePath": "https://aab-photo-albums.s3-us-west-1.amazonaws.com/dubai/52.jpg"
    },
    "dubai/53.jpg": {
      "imagePath": "https://aab-photo-albums.s3-us-west-1.amazonaws.com/dubai/53.jpg"
    },
    "dubai/54.jpg": {
      "imagePath": "https://aab-photo-albums.s3-us-west-1.amazonaws.com/dubai/54.jpg"
    }
  }
}
